Tidy Tuesday: Languages of Africa – Sean Thimons
…
cross_border <- africa %>%
  group_by(language) %>%
  summarize(
    n_countries = n_distinct(country),
    countries = paste(unique(country), collapse = ", "),
    total_speakers = sum(native_speakers, na.rm = TRUE),
    .groups = "drop"
  ) %>%
  filter(n_countries > 1) %>%
  arrange(desc(n_countries))

cross_border

# A tibble: 155 × 4
   language   n_countries countries                               total_speakers
   <chr>            <int> <chr>                                            <dbl>
 1 Arabic              12 Algeria, Chad, Comoros, Djibouti, Egyp…     1800000000
 2 Fulani              10 Benin, Burkina Faso, Cameroon, Gambia,…      440000000
 3 Mooré                8 Burkina Faso, Benin, Ivory Coast, Ghan…      108000000
 4 Soninke              8 Mauritania, Mali, Senegal, Gambia, Bur…       29900000
 5 Gourmanché           6 Benin, Burkina Faso, Ghana, Niger, Nig…        9000000
 6 Lozi                 6 Angola, Botswana, Namibia, South Afric…        4350000
 7 Bariba               5 Benin, Burkina Faso, Niger, Nigeria, T…        6600000
 8 Khwe                 5 Namibia, Angola, Botswana, South Afric…          40000
 9 Mampruli             5 Burkina Faso, Ghana, Ivory Coast, Mali…        1150000
10 Portuguese           5 Angola, Cape Verde, Guinea, Equatorial…       85000000
# ℹ 145 more rows
…
