Tidy Tuesday: The Complete Sherlock Holmes – Sean Thimons
…
book_lengths <- holmes %>%
  filter(!is.na(text), text != "") %>%
  count(book, sort = TRUE, name = "n_lines")

book_lengths

# A tibble: 48 × 2
   book                                        n_lines
   <chr>                                         <int>
 1 The Hound of the Baskervilles                  5468
 2 The Valley Of Fear                             5373
 3 A Study In Scarlet                             3945
 4 The Sign of the Four                           3817
 5 The Naval Treaty                               1192
 6 The Adventure of the Priory School             1095
 7 The Adventure of Wisteria Lodge                1046
 8 The Adventure of the Bruce-Partington Plans    1024
 9 The Adventure of the Second Stain               917
10 The Adventure of the Devil's Foot               899
# ℹ 38 more rows
…
# Top 3 distinctive words per book (sample of books)
top_books <- book_lengths %>%
  head(6) %>%
  pull(book)

book_tfidf %>%
  filter(book %in% top_books) %>%
  group_by(book) %>%
  slice_max(tf_idf, n = 5) %>%
  select(book, word, tf_idf)

# A tibble: 30 × 3
# Groups:   book [6]
   book                               word         tf_idf
   <chr>                              <chr>         <dbl>
 1 A Study In Scarlet                 drebber     0.0144 
 2 A Study In Scarlet                 ferrier     0.0125 
 3 A Study In Scarlet                 stangerson  0.0123 
 4 A Study In Scarlet                 jefferson   0.00828
 5 A Study In Scarlet                 gregson     0.00684
 6 The Adventure of the Priory School bicycle     0.0188 
 7 The Adventure of the Priory School huxtable    0.0167 
 8 The Adventure of the Priory School hayes       0.0157 
 9 The Adventure of the Priory School holdernesse 0.0155 
10 The Adventure of the Priory School grace       0.0140 
# ℹ 20 more rows
…
