Tidy Tuesday: Historic UK Meteorological Data – Sean Thimons
…
stations

# A tibble: 37 × 5
   station      station_name        opened    lng   lat
   <chr>        <chr>                <dbl>  <dbl> <dbl>
 1 aberporth    Aberporth             1941 -4.57   52.1
 2 armagh       Armagh                1853 -6.65   54.4
 3 ballypatrick Ballypatrick Forest   1961 -6.15   55.2
 4 bradford     Bradford              1908 -1.77   53.8
 5 braemar      Braemar No 2          1959 -3.40   57.0
 6 camborne     Camborne              1978 -5.33   50.2
 7 cambridge    Cambridge Niab        1959  0.102  52.2
 8 cardiff      Cardiff Bute Park     1977 -3.19   51.5
 9 chivenor     Chivenor              1951 -4.15   51.1
10 cwmystwyth   Cwmystwyth            1959 -3.80   52.4
# ℹ 27 more rows

weather %>%
  group_by(station) %>%
  summarize(
    min_year = min(year),
    max_year = max(year),
    n_records = n(),
    .groups = "drop"
  ) %>%
  arrange(min_year)

# A tibble: 37 × 4
   station     min_year max_year n_records
   <chr>          <dbl>    <dbl>     <int>
 1 armagh          1853     2024      2064
 2 oxford          1853     2024      2064
 3 southampton     1855     2000      1743
 4 stornoway       1873     2024      1818
 5 durham          1880     2024      1740
 6 sheffield       1883     2024      1704
 7 bradford        1908     2024      1404
 8 eskdalemuir     1911     2024      1368
 9 lowestoft       1914     2010      1150
10 wickairport     1914     2024      1332
# ℹ 27 more rows
…
station_summary

# A tibble: 37 × 5
   station_name               mean_tmax mean_rain mean_sun   lat
   <chr>                          <dbl>     <dbl>    <dbl> <dbl>
 1 Heathrow                        15.8      51.5     132.  51.5
 2 Hurn                            15.2      73.3     140.  50.8
 3 Oxford                          15.1      57.2     135.  51.8
 4 Cardiff Bute Park               15.0     101.      130.  51.5
 5 Southampton Mayflower Park      15.0      64.7     142.  50.9
 6 Yeovilton                       15.0      61.0     127.  51.0
 7 Cambridge Niab                  15.0      47.0     126.  52.2
 8 Ross-on-wye                     14.8      64.2     130.  51.9
 9 Chivenor                        14.8      78.1     NaN   51.1
10 Eastbourne                      14.6      65.8     156.  50.8
# ℹ 27 more rows
…
