Tidy Tuesday: Amazon’s Strategic Evolution Through Language – Sean Thimons
…
# Summary by category
category_summary <- buzzword_trends %>%
  group_by(year, category) %>%
  summarize(mentions = sum(n), .groups = 'drop')

print(category_summary %>% arrange(year, desc(mentions)))

# A tibble: 90 × 3
    year category              mentions
   <dbl> <chr>                    <int>
 1  2005 Digital Content             38
 2  2005 Subscription Services       21
 3  2005 Cloud Computing             13
 4  2006 Digital Content             58
 5  2006 Subscription Services       23
 6  2006 Cloud Computing             20
 7  2007 Digital Content             61
 8  2007 Cloud Computing             28
 9  2007 Subscription Services       23
10  2007 Consumer Devices            18
# ℹ 80 more rows
…
